%YAML 1.1
%TAG !u! tag:unity3d.com,2011:
--- !u!21 &2100000
Material:
  serializedVersion: 6
  m_ObjectHideFlags: 0
  m_CorrespondingSourceObject: {fileID: 0}
  m_PrefabInstance: {fileID: 0}
  m_PrefabAsset: {fileID: 0}
  m_Name: Level2'
  m_Shader: {fileID: 4800000, guid: eb3c6fb598ded4c71b8968e1c40a3b4d, type: 3}
  m_ShaderKeywords: 
  m_LightmapFlags: 0
  m_EnableInstancingVariants: 0
  m_DoubleSidedGI: 0
  m_CustomRenderQueue: -1
  stringTagMap: {}
  disabledShaderPasses: []
  m_SavedProperties:
    serializedVersion: 3
    m_TexEnvs: []
    m_Floats:
    - _HorizonLineContribution: 0.64
    - _HorizonLineExponent: 6
    - _SkyGradientExponent: 1
    - _SunDiscContribution: 1
    - _SunDiscExponent: 250000
    - _SunDiscMultiplier: 200
    - _SunHaloContribution: 0.5
    - _SunHaloExponent: 50
    - _Title: 0
    - __dirty: 0
    m_Colors:
    - _HorizonLineColor: {r: 0, g: 0.7518301, b: 1, a: 1}
    - _SkyGradientBottom: {r: 1, g: 0.8214126, b: 0.41960788, a: 1}
    - _SkyGradientTop: {r: 1, g: 0.9690073, b: 0.6462264, a: 1}
    - _SunDiscColor: {r: 1, g: 0.46264234, b: 0, a: 1}
    - _SunHaloColor: {r: 1, g: 0.16862744, b: 0.92210877, a: 1}
